<?xml version="1.0" encoding="UTF-8" standalone="no"?><svg xmlns="http://www.w3.org/2000/svg" xmlns:xlink="http://www.w3.org/1999/xlink" contentScriptType="application/ecmascript" contentStyleType="text/css" height="339px" preserveAspectRatio="none" style="width:471px;height:339px;" version="1.1" viewBox="0 0 471 339" width="471px" zoomAndPan="magnify"><defs><filter height="300%" id="fj5uysj56tv70" width="300%" x="-1" y="-1"><feGaussianBlur result="blurOut" stdDeviation="1.2"/><feColorMatrix in="blurOut" result="blurOut2" type="matrix" values="0 0 0 0 0 0 0 0 0 0 0 0 0 0 0 0 0 0 .4 0"/><feOffset dx="2.4" dy="2.4" in="blurOut2" result="blurOut3"/><feBlend in="SourceGraphic" in2="blurOut3" mode="normal"/></filter></defs><g><rect fill="#FFFFFF" filter="url(#fj5uysj56tv70)" height="217.8223" style="stroke: #A80036; stroke-width: 0.6;" width="6" x="72.3" y="57.893"/><rect fill="#FFFFFF" filter="url(#fj5uysj56tv70)" height="26.7727" style="stroke: #A80036; stroke-width: 0.6;" width="6" x="432.9" y="70.6793"/><rect fill="#FFFFFF" filter="url(#fj5uysj56tv70)" height="71.5453" style="stroke: #A80036; stroke-width: 0.6;" width="6" x="432.9" y="115.0383"/><rect fill="#FFFFFF" filter="url(#fj5uysj56tv70)" height="21.7863" style="stroke: #A80036; stroke-width: 0.6;" width="6" x="432.9" y="218.7563"/><rect fill="#FFFFFF" filter="url(#fj5uysj56tv70)" height="17.5863" style="stroke: #A80036; stroke-width: 0.6;" width="6" x="432.9" y="258.1289"/><rect fill="#FFFFFF" filter="url(#fj5uysj56tv70)" height="27.9727" style="stroke: #000000; stroke-width: 1.2;" width="456.6" x="7.8" y="141.6246"/><rect fill="#FFFFFF" filter="url(#fj5uysj56tv70)" height="27.9727" style="stroke: #000000; stroke-width: 1.2;" width="456.6" x="7.8" y="195.5836"/><line style="stroke: #A80036; stroke-width: 0.6; stroke-dasharray: 5.0,5.0;" x1="75" x2="75" y1="51.893" y2="286.5152"/><line style="stroke: #A80036; stroke-width: 0.6; stroke-dasharray: 5.0,5.0;" x1="435.6" x2="435.6" y1="51.893" y2="286.5152"/><text fill="#000000" font-family="sans-serif" font-size="8.4" lengthAdjust="spacingAndGlyphs" textLength="119.4" x="13.8" y="50.1211">Colaborador de Organização</text><ellipse cx="75.3" cy="7.8" fill="#FEFECE" filter="url(#fj5uysj56tv70)" rx="4.8" ry="4.8" style="stroke: #A80036; stroke-width: 1.2;"/><path d="M75.3,12.6 L75.3,28.8 M67.5,17.4 L83.1,17.4 M75.3,28.8 L67.5,37.8 M75.3,28.8 L83.1,37.8 " fill="none" filter="url(#fj5uysj56tv70)" style="stroke: #A80036; stroke-width: 1.2;"/><text fill="#000000" font-family="sans-serif" font-size="8.4" lengthAdjust="spacingAndGlyphs" textLength="119.4" x="13.8" y="294.0363">Colaborador de Organização</text><ellipse cx="75.3" cy="301.8082" fill="#FEFECE" filter="url(#fj5uysj56tv70)" rx="4.8" ry="4.8" style="stroke: #A80036; stroke-width: 1.2;"/><path d="M75.3,306.6082 L75.3,322.8082 M67.5,311.4082 L83.1,311.4082 M75.3,322.8082 L67.5,331.8082 M75.3,322.8082 L83.1,331.8082 " fill="none" filter="url(#fj5uysj56tv70)" style="stroke: #A80036; stroke-width: 1.2;"/><rect fill="#FEFECE" filter="url(#fj5uysj56tv70)" height="18.293" style="stroke: #A80036; stroke-width: 0.8999999999999999;" width="42.6" x="413.4" y="30.6"/><text fill="#000000" font-family="sans-serif" font-size="8.4" lengthAdjust="spacingAndGlyphs" textLength="34.2" x="417.6" y="42.9211">:Sistema</text><rect fill="#FEFECE" filter="url(#fj5uysj56tv70)" height="18.293" style="stroke: #A80036; stroke-width: 0.8999999999999999;" width="42.6" x="413.4" y="285.9152"/><text fill="#000000" font-family="sans-serif" font-size="8.4" lengthAdjust="spacingAndGlyphs" textLength="34.2" x="417.6" y="298.2363">:Sistema</text><rect fill="#FFFFFF" filter="url(#fj5uysj56tv70)" height="217.8223" style="stroke: #A80036; stroke-width: 0.6;" width="6" x="72.3" y="57.893"/><rect fill="#FFFFFF" filter="url(#fj5uysj56tv70)" height="26.7727" style="stroke: #A80036; stroke-width: 0.6;" width="6" x="432.9" y="70.6793"/><rect fill="#FFFFFF" filter="url(#fj5uysj56tv70)" height="71.5453" style="stroke: #A80036; stroke-width: 0.6;" width="6" x="432.9" y="115.0383"/><rect fill="#FFFFFF" filter="url(#fj5uysj56tv70)" height="21.7863" style="stroke: #A80036; stroke-width: 0.6;" width="6" x="432.9" y="218.7563"/><rect fill="#FFFFFF" filter="url(#fj5uysj56tv70)" height="17.5863" style="stroke: #A80036; stroke-width: 0.6;" width="6" x="432.9" y="258.1289"/><polygon fill="#A80036" points="425.7,68.2793,431.7,70.6793,425.7,73.0793,428.1,70.6793" style="stroke: #A80036; stroke-width: 0.6;"/><line style="stroke: #A80036; stroke-width: 0.6;" x1="78.3" x2="429.3" y1="70.6793" y2="70.6793"/><text fill="#000000" font-family="sans-serif" font-size="7.8" font-weight="bold" lengthAdjust="spacingAndGlyphs" textLength="5.4" x="82.5" y="67.834">1</text><text fill="#000000" font-family="sans-serif" font-size="7.8" lengthAdjust="spacingAndGlyphs" textLength="335.4" x="90.3" y="67.834">inicia o processo não automático de seriação dos candidatos à realização de um anúncio</text><polygon fill="#A80036" points="84.9,95.052,78.9,97.452,84.9,99.852,82.5,97.452" style="stroke: #A80036; stroke-width: 0.6;"/><line style="stroke: #A80036; stroke-width: 0.6; stroke-dasharray: 2.0,2.0;" x1="81.3" x2="435.3" y1="97.452" y2="97.452"/><text fill="#000000" font-family="sans-serif" font-size="7.8" font-weight="bold" lengthAdjust="spacingAndGlyphs" textLength="5.4" x="88.5" y="90.0135">2</text><text fill="#000000" font-family="sans-serif" font-size="7.8" lengthAdjust="spacingAndGlyphs" textLength="321.6" x="96.3" y="85.4203">mostra os anúncios publicados pelo colaborador em fase de seriação não automática</text><text fill="#000000" font-family="sans-serif" font-size="7.8" lengthAdjust="spacingAndGlyphs" textLength="228.6" x="96.3" y="94.6066">e que ainda não foram seriados e pede-lhe para escolher um</text><polygon fill="#A80036" points="425.7,112.6383,431.7,115.0383,425.7,117.4383,428.1,115.0383" style="stroke: #A80036; stroke-width: 0.6;"/><line style="stroke: #A80036; stroke-width: 0.6;" x1="78.3" x2="429.3" y1="115.0383" y2="115.0383"/><text fill="#000000" font-family="sans-serif" font-size="7.8" font-weight="bold" lengthAdjust="spacingAndGlyphs" textLength="5.4" x="82.5" y="112.193">3</text><text fill="#000000" font-family="sans-serif" font-size="7.8" lengthAdjust="spacingAndGlyphs" textLength="82.2" x="90.3" y="112.193">seleciona um anúncio</text><polygon fill="#A80036" points="84.9,130.2246,78.9,132.6246,84.9,135.0246,82.5,132.6246" style="stroke: #A80036; stroke-width: 0.6;"/><line style="stroke: #A80036; stroke-width: 0.6; stroke-dasharray: 2.0,2.0;" x1="81.3" x2="432.3" y1="132.6246" y2="132.6246"/><text fill="#000000" font-family="sans-serif" font-size="7.8" font-weight="bold" lengthAdjust="spacingAndGlyphs" textLength="5.4" x="88.5" y="129.7793">4</text><text fill="#000000" font-family="sans-serif" font-size="7.8" lengthAdjust="spacingAndGlyphs" textLength="235.2" x="96.3" y="129.7793">mostra as candidaturas existente e solicita a sua classificação</text><path d="M7.8,141.6246 L52.2,141.6246 L52.2,145.8246 L46.2,151.8246 L7.8,151.8246 L7.8,141.6246 " fill="#EEEEEE" style="stroke: #000000; stroke-width: 0.6;"/><rect fill="none" height="27.9727" style="stroke: #000000; stroke-width: 1.2;" width="456.6" x="7.8" y="141.6246"/><text fill="#000000" font-family="sans-serif" font-size="7.8" font-weight="bold" lengthAdjust="spacingAndGlyphs" textLength="17.4" x="16.8" y="149.7656">loop</text><polygon fill="#A80036" points="425.7,162.3973,431.7,164.7973,425.7,167.1973,428.1,164.7973" style="stroke: #A80036; stroke-width: 0.6;"/><line style="stroke: #A80036; stroke-width: 0.6;" x1="78.3" x2="429.3" y1="164.7973" y2="164.7973"/><text fill="#000000" font-family="sans-serif" font-size="7.8" font-weight="bold" lengthAdjust="spacingAndGlyphs" textLength="5.4" x="82.5" y="161.952">5</text><text fill="#000000" font-family="sans-serif" font-size="7.8" lengthAdjust="spacingAndGlyphs" textLength="82.2" x="90.3" y="161.952">classifica candidatura</text><polygon fill="#A80036" points="84.9,184.1836,78.9,186.5836,84.9,188.9836,82.5,186.5836" style="stroke: #A80036; stroke-width: 0.6;"/><line style="stroke: #A80036; stroke-width: 0.6; stroke-dasharray: 2.0,2.0;" x1="81.3" x2="435.3" y1="186.5836" y2="186.5836"/><text fill="#000000" font-family="sans-serif" font-size="7.8" font-weight="bold" lengthAdjust="spacingAndGlyphs" textLength="5.4" x="88.5" y="183.7383">6</text><text fill="#000000" font-family="sans-serif" font-size="7.8" lengthAdjust="spacingAndGlyphs" textLength="329.4" x="96.3" y="183.7383">mostra os colaboradores da organização e pede para selecionar os outros participantes</text><path d="M7.8,195.5836 L52.2,195.5836 L52.2,199.7836 L46.2,205.7836 L7.8,205.7836 L7.8,195.5836 " fill="#EEEEEE" style="stroke: #000000; stroke-width: 0.6;"/><rect fill="none" height="27.9727" style="stroke: #000000; stroke-width: 1.2;" width="456.6" x="7.8" y="195.5836"/><text fill="#000000" font-family="sans-serif" font-size="7.8" font-weight="bold" lengthAdjust="spacingAndGlyphs" textLength="17.4" x="16.8" y="203.7246">loop</text><polygon fill="#A80036" points="425.7,216.3563,431.7,218.7563,425.7,221.1563,428.1,218.7563" style="stroke: #A80036; stroke-width: 0.6;"/><line style="stroke: #A80036; stroke-width: 0.6;" x1="78.3" x2="429.3" y1="218.7563" y2="218.7563"/><text fill="#000000" font-family="sans-serif" font-size="7.8" font-weight="bold" lengthAdjust="spacingAndGlyphs" textLength="5.4" x="82.5" y="215.9109">7</text><text fill="#000000" font-family="sans-serif" font-size="7.8" lengthAdjust="spacingAndGlyphs" textLength="169.8" x="90.3" y="215.9109">seleciona outros colaboradores participantes</text><polygon fill="#A80036" points="84.9,238.1426,78.9,240.5426,84.9,242.9426,82.5,240.5426" style="stroke: #A80036; stroke-width: 0.6;"/><line style="stroke: #A80036; stroke-width: 0.6; stroke-dasharray: 2.0,2.0;" x1="81.3" x2="435.3" y1="240.5426" y2="240.5426"/><text fill="#000000" font-family="sans-serif" font-size="7.8" font-weight="bold" lengthAdjust="spacingAndGlyphs" textLength="5.4" x="88.5" y="237.6973">8</text><text fill="#000000" font-family="sans-serif" font-size="7.8" lengthAdjust="spacingAndGlyphs" textLength="159" x="96.3" y="237.6973">apresenta os dados e solicita confirmação</text><polygon fill="#A80036" points="425.7,255.7289,431.7,258.1289,425.7,260.5289,428.1,258.1289" style="stroke: #A80036; stroke-width: 0.6;"/><line style="stroke: #A80036; stroke-width: 0.6;" x1="78.3" x2="429.3" y1="258.1289" y2="258.1289"/><text fill="#000000" font-family="sans-serif" font-size="7.8" font-weight="bold" lengthAdjust="spacingAndGlyphs" textLength="5.4" x="82.5" y="255.2836">9</text><text fill="#000000" font-family="sans-serif" font-size="7.8" lengthAdjust="spacingAndGlyphs" textLength="33.6" x="90.3" y="255.2836">confirma</text><polygon fill="#A80036" points="81.9,273.3152,75.9,275.7152,81.9,278.1152,79.5,275.7152" style="stroke: #A80036; stroke-width: 0.6;"/><line style="stroke: #A80036; stroke-width: 0.6; stroke-dasharray: 2.0,2.0;" x1="78.3" x2="435.3" y1="275.7152" y2="275.7152"/><text fill="#000000" font-family="sans-serif" font-size="7.8" font-weight="bold" lengthAdjust="spacingAndGlyphs" textLength="10.8" x="85.5" y="272.8699">10</text><text fill="#000000" font-family="sans-serif" font-size="7.8" lengthAdjust="spacingAndGlyphs" textLength="122.4" x="98.7" y="272.8699">informa do sucesso da operação</text><!--MD5=[13aad1183f73353ccd7beff08ff65094]
@startuml
autonumber

actor "Colaborador de Organização" as COLAB

participant ":Sistema" as SIST

activate COLAB

COLAB -> SIST : inicia o processo não automático de seriação dos candidatos à realização de um anúncio
activate SIST
SIST - -> COLAB : mostra os anúncios publicados pelo colaborador em fase de seriação não automática \ne que ainda não foram seriados e pede-lhe para escolher um
deactivate SIST

COLAB -> SIST : seleciona um anúncio
activate SIST

SIST - -> COLAB : mostra as candidaturas existente e solicita a sua classificação
loop
COLAB -> SIST : classifica candidatura
end loop
activate SIST
SIST - -> COLAB : mostra os colaboradores da organização e pede para selecionar os outros participantes
deactivate SIST

loop
COLAB -> SIST : seleciona outros colaboradores participantes
activate SIST
end loop
SIST - -> COLAB : apresenta os dados e solicita confirmação
deactivate SIST

COLAB -> SIST : confirma
activate SIST
SIST - -> COLAB : informa do sucesso da operação
deactivate SIST

deactivate COLAB
@enduml

PlantUML version 1.2020.07(Sun Apr 19 12:42:40 WEST 2020)
(GPL source distribution)
Java Runtime: OpenJDK Runtime Environment
JVM: OpenJDK 64-Bit Server VM
Java Version: 11.0.6+8-b765.25
Operating System: Mac OS X
Default Encoding: UTF-8
Language: en
Country: PT
--></g></svg>