<?xml version="1.0" encoding="UTF-8" standalone="no"?><svg xmlns="http://www.w3.org/2000/svg" xmlns:xlink="http://www.w3.org/1999/xlink" contentScriptType="application/ecmascript" contentStyleType="text/css" height="289.2px" preserveAspectRatio="none" style="width:516px;height:289px;" version="1.1" viewBox="0 0 516 289" width="516.6px" zoomAndPan="magnify"><defs><filter height="300%" id="f1s5ra895r4ahq" width="300%" x="-1" y="-1"><feGaussianBlur result="blurOut" stdDeviation="1.2"/><feColorMatrix in="blurOut" result="blurOut2" type="matrix" values="0 0 0 0 0 0 0 0 0 0 0 0 0 0 0 0 0 0 .4 0"/><feOffset dx="2.4" dy="2.4" in="blurOut2" result="blurOut3"/><feBlend in="SourceGraphic" in2="blurOut3" mode="normal"/></filter></defs><g><text fill="#000000" font-family="sans-serif" font-size="10.8" lengthAdjust="spacingAndGlyphs" textLength="226.2" x="145.5" y="16.4414">SD_getAnunciosElegiveisDoFreelancer(freel)</text><rect fill="#FFFFFF" filter="url(#f1s5ra895r4ahq)" height="189.8766" style="stroke: #A80036; stroke-width: 0.6;" width="6" x="62.7" y="60.1055"/><rect fill="#FFFFFF" filter="url(#f1s5ra895r4ahq)" height="171.6902" style="stroke: #A80036; stroke-width: 0.6;" width="6" x="65.7" y="77.6918"/><rect fill="#FFFFFF" filter="url(#f1s5ra895r4ahq)" height="118.3043" style="stroke: #000000; stroke-width: 1.2;" width="456.6" x="7.8" y="126.8777"/><rect fill="#FFFFFF" filter="url(#f1s5ra895r4ahq)" height="64.3453" style="stroke: #000000; stroke-width: 1.2;" width="444.6" x="13.8" y="176.6367"/><rect fill="#FFFFFF" filter="url(#f1s5ra895r4ahq)" height="27.9727" style="stroke: #000000; stroke-width: 1.2;" width="387.6" x="19.8" y="208.8094"/><line style="stroke: #A80036; stroke-width: 0.6; stroke-dasharray: 5.0,5.0;" x1="65.4" x2="65.4" y1="54.1055" y2="255.382"/><line style="stroke: #A80036; stroke-width: 0.6; stroke-dasharray: 5.0,5.0;" x1="276" x2="276" y1="54.1055" y2="255.382"/><line style="stroke: #A80036; stroke-width: 0.6; stroke-dasharray: 5.0,5.0;" x1="361.8" x2="361.8" y1="110.0848" y2="255.382"/><line style="stroke: #A80036; stroke-width: 0.6; stroke-dasharray: 5.0,5.0;" x1="429.6" x2="429.6" y1="54.1055" y2="255.382"/><line style="stroke: #A80036; stroke-width: 0.6; stroke-dasharray: 5.0,5.0;" x1="485.4" x2="485.4" y1="54.1055" y2="255.382"/><rect fill="#FEFECE" filter="url(#f1s5ra895r4ahq)" height="28.1859" style="stroke: #A80036; stroke-width: 0.8999999999999999;" width="77.4" x="25.8" y="22.9195"/><text fill="#000000" font-family="sans-serif" font-size="8.4" lengthAdjust="spacingAndGlyphs" textLength="21.6" x="53.7" y="35.2406">ranu:</text><text fill="#000000" font-family="sans-serif" font-size="8.4" lengthAdjust="spacingAndGlyphs" textLength="69" x="30" y="45.1336">RegistoAnuncios</text><rect fill="#FEFECE" filter="url(#f1s5ra895r4ahq)" height="28.1859" style="stroke: #A80036; stroke-width: 0.8999999999999999;" width="77.4" x="25.8" y="254.782"/><text fill="#000000" font-family="sans-serif" font-size="8.4" lengthAdjust="spacingAndGlyphs" textLength="21.6" x="53.7" y="267.1031">ranu:</text><text fill="#000000" font-family="sans-serif" font-size="8.4" lengthAdjust="spacingAndGlyphs" textLength="69" x="30" y="276.9961">RegistoAnuncios</text><rect fill="#FEFECE" filter="url(#f1s5ra895r4ahq)" height="18.293" style="stroke: #A80036; stroke-width: 0.8999999999999999;" width="78.6" x="235.8" y="32.8125"/><text fill="#000000" font-family="sans-serif" font-size="8.4" lengthAdjust="spacingAndGlyphs" textLength="70.2" x="240" y="45.1336">: List&lt;Anuncios&gt;</text><rect fill="#FEFECE" filter="url(#f1s5ra895r4ahq)" height="18.293" style="stroke: #A80036; stroke-width: 0.8999999999999999;" width="78.6" x="235.8" y="254.782"/><text fill="#000000" font-family="sans-serif" font-size="8.4" lengthAdjust="spacingAndGlyphs" textLength="70.2" x="240" y="267.1031">: List&lt;Anuncios&gt;</text><rect fill="#FEFECE" filter="url(#f1s5ra895r4ahq)" height="28.1859" style="stroke: #A80036; stroke-width: 0.8999999999999999;" width="76.2" x="322.8" y="254.782"/><text fill="#000000" font-family="sans-serif" font-size="8.4" lengthAdjust="spacingAndGlyphs" textLength="36" x="342.9" y="267.1031">listaAnu:</text><text fill="#000000" font-family="sans-serif" font-size="8.4" lengthAdjust="spacingAndGlyphs" textLength="65.4" x="329.4" y="276.9961">List&lt;Anuncios&gt;</text><rect fill="#FEFECE" filter="url(#f1s5ra895r4ahq)" height="28.1859" style="stroke: #A80036; stroke-width: 0.8999999999999999;" width="42.6" x="407.4" y="22.9195"/><text fill="#000000" font-family="sans-serif" font-size="8.4" lengthAdjust="spacingAndGlyphs" textLength="18" x="419.7" y="35.2406">anu:</text><text fill="#000000" font-family="sans-serif" font-size="8.4" lengthAdjust="spacingAndGlyphs" textLength="34.2" x="411.6" y="45.1336">Anuncio</text><rect fill="#FEFECE" filter="url(#f1s5ra895r4ahq)" height="28.1859" style="stroke: #A80036; stroke-width: 0.8999999999999999;" width="42.6" x="407.4" y="254.782"/><text fill="#000000" font-family="sans-serif" font-size="8.4" lengthAdjust="spacingAndGlyphs" textLength="18" x="419.7" y="267.1031">anu:</text><text fill="#000000" font-family="sans-serif" font-size="8.4" lengthAdjust="spacingAndGlyphs" textLength="34.2" x="411.6" y="276.9961">Anuncio</text><rect fill="#FEFECE" filter="url(#f1s5ra895r4ahq)" height="28.1859" style="stroke: #A80036; stroke-width: 0.8999999999999999;" width="51.6" x="458.4" y="22.9195"/><text fill="#000000" font-family="sans-serif" font-size="8.4" lengthAdjust="spacingAndGlyphs" textLength="21" x="473.7" y="35.2406">freel:</text><text fill="#000000" font-family="sans-serif" font-size="8.4" lengthAdjust="spacingAndGlyphs" textLength="43.2" x="462.6" y="45.1336">Freelancer</text><rect fill="#FEFECE" filter="url(#f1s5ra895r4ahq)" height="28.1859" style="stroke: #A80036; stroke-width: 0.8999999999999999;" width="51.6" x="458.4" y="254.782"/><text fill="#000000" font-family="sans-serif" font-size="8.4" lengthAdjust="spacingAndGlyphs" textLength="21" x="473.7" y="267.1031">freel:</text><text fill="#000000" font-family="sans-serif" font-size="8.4" lengthAdjust="spacingAndGlyphs" textLength="43.2" x="462.6" y="276.9961">Freelancer</text><rect fill="#FFFFFF" filter="url(#f1s5ra895r4ahq)" height="189.8766" style="stroke: #A80036; stroke-width: 0.6;" width="6" x="62.7" y="60.1055"/><rect fill="#FFFFFF" filter="url(#f1s5ra895r4ahq)" height="171.6902" style="stroke: #A80036; stroke-width: 0.6;" width="6" x="65.7" y="77.6918"/><line style="stroke: #A80036; stroke-width: 0.6;" x1="68.7" x2="96.9" y1="69.8918" y2="69.8918"/><line style="stroke: #A80036; stroke-width: 0.6;" x1="96.9" x2="96.9" y1="69.8918" y2="77.6918"/><line style="stroke: #A80036; stroke-width: 0.6;" x1="72.3" x2="96.9" y1="77.6918" y2="77.6918"/><polygon fill="#A80036" points="78.3,75.2918,72.3,77.6918,78.3,80.0918,75.9,77.6918" style="stroke: #A80036; stroke-width: 0.6;"/><text fill="#000000" font-family="sans-serif" font-size="7.8" font-weight="bold" lengthAdjust="spacingAndGlyphs" textLength="5.4" x="75.9" y="67.0465">1</text><text fill="#000000" font-family="sans-serif" font-size="7.8" lengthAdjust="spacingAndGlyphs" textLength="188.4" x="83.7" y="67.0465">listaAnu=getAnunciosElegiveisDoFreelancer(freel)</text><polygon fill="#A80036" points="315.6,95.8781,321.6,98.2781,315.6,100.6781,318,98.2781" style="stroke: #A80036; stroke-width: 0.6;"/><line style="stroke: #A80036; stroke-width: 0.6;" x1="71.7" x2="319.2" y1="98.2781" y2="98.2781"/><text fill="#000000" font-family="sans-serif" font-size="7.8" font-weight="bold" lengthAdjust="spacingAndGlyphs" textLength="5.4" x="75.9" y="95.4328">2</text><text fill="#000000" font-family="sans-serif" font-size="7.8" lengthAdjust="spacingAndGlyphs" textLength="27.6" x="83.7" y="95.4328">create()</text><rect fill="#FEFECE" filter="url(#f1s5ra895r4ahq)" height="28.1859" style="stroke: #A80036; stroke-width: 0.8999999999999999;" width="76.2" x="322.8" y="85.4918"/><text fill="#000000" font-family="sans-serif" font-size="8.4" lengthAdjust="spacingAndGlyphs" textLength="36" x="342.9" y="97.8129">listaAnu:</text><text fill="#000000" font-family="sans-serif" font-size="8.4" lengthAdjust="spacingAndGlyphs" textLength="65.4" x="329.4" y="107.7059">List&lt;Anuncios&gt;</text><path d="M7.8,126.8777 L52.2,126.8777 L52.2,131.0777 L46.2,137.0777 L7.8,137.0777 L7.8,126.8777 " fill="#EEEEEE" style="stroke: #000000; stroke-width: 0.6;"/><rect fill="none" height="118.3043" style="stroke: #000000; stroke-width: 1.2;" width="456.6" x="7.8" y="126.8777"/><text fill="#000000" font-family="sans-serif" font-size="7.8" font-weight="bold" lengthAdjust="spacingAndGlyphs" textLength="17.4" x="16.8" y="135.0187">loop</text><a href="" target="_top" title="" xlink:actuate="onRequest" xlink:href="" xlink:show="new" xlink:title="" xlink:type="simple"><text fill="#0000FF" font-family="sans-serif" font-size="6.6" font-weight="bold" lengthAdjust="spacingAndGlyphs" text-decoration="underline" textLength="94.2" x="61.2" y="134.4586">Para cada anúncio registado</text></a><polygon fill="#A80036" points="269.1,147.6504,275.1,150.0504,269.1,152.4504,271.5,150.0504" style="stroke: #A80036; stroke-width: 0.6;"/><line style="stroke: #A80036; stroke-width: 0.6;" x1="71.7" x2="272.7" y1="150.0504" y2="150.0504"/><text fill="#000000" font-family="sans-serif" font-size="7.8" font-weight="bold" lengthAdjust="spacingAndGlyphs" textLength="5.4" x="75.9" y="147.2051">3</text><text fill="#000000" font-family="sans-serif" font-size="7.8" lengthAdjust="spacingAndGlyphs" textLength="43.8" x="83.7" y="147.2051">anu = get(i)</text><polygon fill="#A80036" points="422.7,165.2367,428.7,167.6367,422.7,170.0367,425.1,167.6367" style="stroke: #A80036; stroke-width: 0.6;"/><line style="stroke: #A80036; stroke-width: 0.6;" x1="71.7" x2="426.3" y1="167.6367" y2="167.6367"/><text fill="#000000" font-family="sans-serif" font-size="7.8" font-weight="bold" lengthAdjust="spacingAndGlyphs" textLength="5.4" x="75.9" y="164.7914">4</text><text fill="#000000" font-family="sans-serif" font-size="7.8" lengthAdjust="spacingAndGlyphs" textLength="109.8" x="83.7" y="164.7914">aceita = aceitaCandidaturas()</text><path d="M13.8,176.6367 L54,176.6367 L54,180.8367 L48,186.8367 L13.8,186.8367 L13.8,176.6367 " fill="#EEEEEE" style="stroke: #000000; stroke-width: 0.6;"/><rect fill="none" height="64.3453" style="stroke: #000000; stroke-width: 1.2;" width="444.6" x="13.8" y="176.6367"/><text fill="#000000" font-family="sans-serif" font-size="7.8" font-weight="bold" lengthAdjust="spacingAndGlyphs" textLength="13.2" x="22.8" y="184.7777">opt</text><a href="" target="_top" title="" xlink:actuate="onRequest" xlink:href="" xlink:show="new" xlink:title="" xlink:type="simple"><text fill="#0000FF" font-family="sans-serif" font-size="6.6" font-weight="bold" lengthAdjust="spacingAndGlyphs" text-decoration="underline" textLength="48" x="63" y="184.2176">aceita == true</text></a><polygon fill="#A80036" points="422.7,197.4094,428.7,199.8094,422.7,202.2094,425.1,199.8094" style="stroke: #A80036; stroke-width: 0.6;"/><line style="stroke: #A80036; stroke-width: 0.6;" x1="71.7" x2="426.3" y1="199.8094" y2="199.8094"/><text fill="#000000" font-family="sans-serif" font-size="7.8" font-weight="bold" lengthAdjust="spacingAndGlyphs" textLength="5.4" x="75.9" y="196.9641">5</text><text fill="#000000" font-family="sans-serif" font-size="7.8" lengthAdjust="spacingAndGlyphs" textLength="108.6" x="83.7" y="196.9641">b = éFreelancerElegivel(freel)</text><path d="M19.8,208.8094 L60,208.8094 L60,213.0094 L54,219.0094 L19.8,219.0094 L19.8,208.8094 " fill="#EEEEEE" style="stroke: #000000; stroke-width: 0.6;"/><rect fill="none" height="27.9727" style="stroke: #000000; stroke-width: 1.2;" width="387.6" x="19.8" y="208.8094"/><text fill="#000000" font-family="sans-serif" font-size="7.8" font-weight="bold" lengthAdjust="spacingAndGlyphs" textLength="13.2" x="28.8" y="216.9504">opt</text><a href="" target="_top" title="" xlink:actuate="onRequest" xlink:href="" xlink:show="new" xlink:title="" xlink:type="simple"><text fill="#0000FF" font-family="sans-serif" font-size="6.6" font-weight="bold" lengthAdjust="spacingAndGlyphs" text-decoration="underline" textLength="33" x="69" y="216.3902">b == true</text></a><polygon fill="#A80036" points="354.9,229.582,360.9,231.982,354.9,234.382,357.3,231.982" style="stroke: #A80036; stroke-width: 0.6;"/><line style="stroke: #A80036; stroke-width: 0.6;" x1="71.7" x2="358.5" y1="231.982" y2="231.982"/><text fill="#000000" font-family="sans-serif" font-size="7.8" font-weight="bold" lengthAdjust="spacingAndGlyphs" textLength="5.4" x="75.9" y="229.1367">6</text><text fill="#000000" font-family="sans-serif" font-size="7.8" lengthAdjust="spacingAndGlyphs" textLength="32.4" x="83.7" y="229.1367">add(anu)</text><!--MD5=[8cfbbd0d1b2f77225dccb5bed216acc7]
@startuml
autonumber

title SD_getAnunciosElegiveisDoFreelancer(freel)

participant "ranu:\nRegistoAnuncios" as RANU
participant ": List<Anuncios>" as LA
participant "listaAnu:\n List<Anuncios>" as LSTAE
participant "anu:\nAnuncio" as ANUN
participant "freel:\nFreelancer" as FREEL

activate RANU
RANU -> RANU : listaAnu=getAnunciosElegiveisDoFreelancer(freel)
activate RANU
RANU -> LSTAE **:create()
loop [ Para cada anúncio registado ]
RANU -> LA : anu = get(i)

RANU -> ANUN: aceita = aceitaCandidaturas()
OPT [ aceita == true ]
RANU -> ANUN: b = éFreelancerElegivel(freel)
OPT [ b == true ]
RANU -> LSTAE : add(anu)
end OPT
end OPT
end loop

deactivate RANU
@enduml

PlantUML version 1.2020.07(Sun Apr 19 12:42:40 WEST 2020)
(GPL source distribution)
Java Runtime: OpenJDK Runtime Environment
JVM: OpenJDK 64-Bit Server VM
Java Version: 11.0.6+8-b765.25
Operating System: Mac OS X
Default Encoding: UTF-8
Language: en
Country: PT
--></g></svg>